{
	"info": {
		"_postman_id": "ee739df9-3f7a-402d-a079-d0c66ea81f85",
		"name": "Demo-Category-service",
		"schema": "https://schema.getpostman.com/json/collection/v2.1.0/collection.json"
	},
	"item": [
		{
			"name": "Get Category",
			"request": {
				"method": "GET",
				"header": [],
				"url": {
					"raw": "{{URL}}/category",
					"host": [
						"{{URL}}"
					],
					"path": [
						"category"
					]
				}
			},
			"response": []
		}
	],
	"event": [
		{
			"listen": "prerequest",
			"script": {
				"type": "text/javascript",
				"exec": [
					""
				]
			}
		},
		{
			"listen": "test",
			"script": {
				"type": "text/javascript",
				"exec": [
					""
				]
			}
		}
	],
	"variable": [
		{
			"key": "URL",
			"value": "http://localhost:4001",
			"type": "string"
		}
	]
}